"-0.0298071702849555","0.140398858225244"
"2.83159385404147","0.0937464343992054"
"6.61698986875485","0.0793589743589743"
"9.62742128681672","0.0675356103619959"
"13.6214593069908","0.0572791935847356"
"17.5260812739993","0.0495868858924279"
"21.4903121238885","0.0448860311915732"
